COVID-19 Data • covdata
…
covnat
#> # A tibble: 51,197 x 8
#> # Groups:   iso3 [211]
#>    date       cname       iso3  cases deaths       pop cu_cases cu_deaths
#>    <date>     <chr>       <chr> <dbl>  <dbl>     <dbl>    <dbl>     <dbl>
#>  1 2019-12-31 Afghanistan AFG       0      0  38041757        0         0
#>  2 2019-12-31 Algeria     DZA       0      0  43053054        0         0
#>  3 2019-12-31 Armenia     ARM       0      0   2957728        0         0
#>  4 2019-12-31 Australia   AUS       0      0  25203200        0         0
#>  5 2019-12-31 Austria     AUT       0      0   8858775        0         0
#>  6 2019-12-31 Azerbaijan  AZE       0      0  10047719        0         0
#>  7 2019-12-31 Bahrain     BHR       0      0   1641164        0         0
#>  8 2019-12-31 Belarus     BLR       0      0   9452409        0         0
#>  9 2019-12-31 Belgium     BEL       0      0  11455519        0         0
#> 10 2019-12-31 Brazil      BRA       0      0 211049519        0         0
#> # … with 51,187 more rows

apple_mobility %>%
  filter(region == "New York City", transportation_type == "walking")
#> # A tibble: 285 x 8
#>    geo_type region transportation_… alternative_name sub_region country
#>    <chr>    <chr>  <chr>            <chr>            <chr>      <chr>  
#>  1 city     New Y… walking          NYC              New York   United…
#>  2 city     New Y… walking          NYC              New York   United…
#>  3 city     New Y… walking          NYC              New York   United…
#>  4 city     New Y… walking          NYC              New York   United…
#>  5 city     New Y… walking          NYC              New York   United…
#>  6 city     New Y… walking          NYC              New York   United…
#>  7 city     New Y… walking          NYC              New York   United…
#>  8 city     New Y… walking          NYC              New York   United…
#>  9 city     New Y… walking          NYC              New York   United…
#> 10 city     New Y… walking          NYC              New York   United…
#> # … with 275 more rows, and 2 more variables: date <date>, score <dbl>
…
