…
## Installation

`covdata` is not available on CRAN. You can install it with `remotes::install_github("kjheay/covdata")`.


## Country-level Data

```r
library(tidyverse)
library(covdata)

## National level tibble
covnat
#> # A tibble: 9,653 x 8
#> # Groups:   iso3 [204]
#>    date       cname       iso3  cases deaths  pop_2018 cu_cases cu_deaths
#>    <date>     <chr>       <chr> <dbl>  <dbl>     <dbl>    <dbl>     <dbl>
#>  1 2019-12-31 Afghanistan AFG       0      0  37172386        0         0
#>  2 2019-12-31 Algeria     DZA       0      0  42228429        0         0
#>  3 2019-12-31 Armenia     ARM       0      0   2951776        0         0
#>  4 2019-12-31 Australia   AUS       0      0  24992369        0         0
#>  5 2019-12-31 Austria     AUT       0      0   8847037        0         0
#>  6 2019-12-31 Azerbaijan  AZE       0      0   9942334        0         0
#>  7 2019-12-31 Bahrain     BHR       0      0   1569439        0         0
#>  8 2019-12-31 Belarus     BLR       0      0   9485386        0         0
#>  9 2019-12-31 Belgium     BEL       0      0  11422068        0         0
#> 10 2019-12-31 Brazil      BRA       0      0 209469333        0         0
#> # … with 9,643 more rows
```
…
<img src="man/figures/README-example-1.png" title="plot of chunk example" alt="plot of chunk example" width="100%" />


## U.S. States


```r
## US state tibble
covus
#> # A tibble: 27,216 x 11
#>    date       state fips  measure count pos_neg death_increase hospitalized_in… negative_increa… positive_increa…
#>    <date>     <chr> <chr> <chr>   <dbl>   <dbl>          <dbl>            <dbl>            <dbl>            <dbl>
#>  1 2020-04-09 AK    02    positi…   235    7223              0                0              146                9
#>  2 2020-04-09 AK    02    negati…  6988    7223              0                0              146                9
#>  3 2020-04-09 AK    02    pending    NA    7223              0                0              146                9
#>  4 2020-04-09 AK    02    hospit…    NA    7223              0                0              146                9
#>  5 2020-04-09 AK    02    hospit…    27    7223              0                0              146                9
#>  6 2020-04-09 AK    02    in_icu…    NA    7223              0                0              146                9
#>  7 2020-04-09 AK    02    in_icu…    NA    7223              0                0              146                9
#>  8 2020-04-09 AK    02    on_ven…    NA    7223              0                0              146                9
#>  9 2020-04-09 AK    02    on_ven…    NA    7223              0                0              146                9
#> 10 2020-04-09 AK    02    recove…    49    7223              0                0              146                9
#> # … with 27,206 more rows, and 1 more variable: total_test_results_increase <dbl>
```
…
