CoronaNet Data • covdata
…
The level of government responding to the corona virus crisis (e.g. national, regional/state, local/municipal)

Specific actions taken (e.g. travel bans, investments in the public health sector, etc.)

Geographical areas targeted by these measures

Who or what they are targeting (e.g. foreigners, ventilators)

Compliance mechanisms (e.g. mandatory or voluntary)

Timing of policy responses.

coronanet
#> # A tibble: 60,825 x 39
#>    record_id policy_id entry_type correct_type update_type update_level
#>    <chr>     <chr>     <chr>      <chr>        <chr>       <chr>       
#>  1 R_3nCudD… 2975738   new_entry  original     <NA>        <NA>        
#>  2 R_3nCudD… 2975738   new_entry  original     <NA>        <NA>        
#>  3 R_3nCudD… 2975738   new_entry  original     <NA>        <NA>        
#>  4 R_3nCudD… 2975738   new_entry  original     <NA>        <NA>        
#>  5 R_3nCudD… 2975738   new_entry  original     <NA>        <NA>        
#>  6 R_3nCudD… 2975738   new_entry  original     <NA>        <NA>        
#>  7 R_3nCudD… 2975738   new_entry  original     <NA>        <NA>        
#>  8 R_3nCudD… 2975738   new_entry  original     <NA>        <NA>        
#>  9 R_3nCudD… 2975738   new_entry  original     <NA>        <NA>        
#> 10 R_3nCudD… 2975738   new_entry  original     <NA>        <NA>        
#> # … with 60,815 more rows, and 33 more variables: description <chr>,
#> #   date_announced <dttm>, date_start <date>, date_end <date>, country <chr>,
#> #   iso3 <chr>, iso2 <chr>, init_country_level <chr>, domestic_policy <int>,
#> #   province <chr>, city <chr>, type <chr>, type_sub_cat <chr>,
#> #   type_text <chr>, school_status <chr>, target_country <chr>,
#> #   target_geog_level <chr>, target_region <chr>, target_province <chr>,
#> #   target_city <chr>, target_other <chr>, target_who_what <chr>,
#> #   target_direction <chr>, travel_mechanism <chr>, compliance <chr>,
#> #   enforcer <chr>, index_high_est <dbl>, index_med_est <dbl>,
…
