European Centers for Disease Control Data • covdata
…
National level case and mortality data from the European Centers for Disease Control.

covnat_weekly
#> # A tibble: 18,962 × 11
#>    date       year_week cname       iso3     pop cases deaths cu_cases cu_deaths
#>    <date>     <chr>     <chr>       <chr>  <dbl> <dbl>  <dbl>    <dbl>     <dbl>
#>  1 2019-12-30 2020-01   Afghanistan AFG   3.89e7     0      0        0         0
#>  2 2020-01-06 2020-02   Afghanistan AFG   3.89e7     0      0        0         0
#>  3 2020-01-13 2020-03   Afghanistan AFG   3.89e7     0      0        0         0
#>  4 2020-01-20 2020-04   Afghanistan AFG   3.89e7     0      0        0         0
#>  5 2020-01-27 2020-05   Afghanistan AFG   3.89e7     0      0        0         0
#>  6 2020-02-03 2020-06   Afghanistan AFG   3.89e7     0      0        0         0
#>  7 2020-02-10 2020-07   Afghanistan AFG   3.89e7     0      0        0         0
#>  8 2020-02-17 2020-08   Afghanistan AFG   3.89e7     0      0        0         0
#>  9 2020-02-24 2020-09   Afghanistan AFG   3.89e7     1      0        1         0
#> 10 2020-03-02 2020-10   Afghanistan AFG   3.89e7     3      0        4         0
#> # … with 18,952 more rows, and 2 more variables: r14_cases <dbl>,
#> #   r14_deaths <dbl>
…
