Excess Mortality Data • covdata
…
stmf
#> # A tibble: 568,170 × 17
#>    country_c…¹ cname iso2  conti…² iso3   year  week sex   split split…³ forec…⁴
#>    <chr>       <chr> <chr> <chr>   <chr> <dbl> <dbl> <chr> <dbl>   <dbl>   <dbl>
#>  1 AUS         Aust… AU    Oceania AUS    2015     1 m         1       0       0
#>  2 AUS         Aust… AU    Oceania AUS    2015     1 m         1       0       0
#>  3 AUS         Aust… AU    Oceania AUS    2015     1 m         1       0       0
#>  4 AUS         Aust… AU    Oceania AUS    2015     1 m         1       0       0
#>  5 AUS         Aust… AU    Oceania AUS    2015     1 m         1       0       0
#>  6 AUS         Aust… AU    Oceania AUS    2015     1 f         1       0       0
#>  7 AUS         Aust… AU    Oceania AUS    2015     1 f         1       0       0
#>  8 AUS         Aust… AU    Oceania AUS    2015     1 f         1       0       0
#>  9 AUS         Aust… AU    Oceania AUS    2015     1 f         1       0       0
#> 10 AUS         Aust… AU    Oceania AUS    2015     1 f         1       0       0
#> # … with 568,160 more rows, 6 more variables: approx_date <date>,
#> #   age_group <chr>, death_count <dbl>, death_rate <dbl>, deaths_total <dbl>,
#> #   rate_total <dbl>, and abbreviated variable names ¹​country_code, ²​continent,
#> #   ³​split_sex, ⁴​forecast
#> # ℹ Use `print(n = ...)` to see more rows, and `colnames()` to see all variable names
…
NCHS Mortality Counts and Estimates

nchs_wdc
#> # A tibble: 327,456 × 7
#>    jurisdiction  year  week week_ending_date cause_detailed              n cause
#>    <chr>        <dbl> <dbl> <date>           <chr>                   <dbl> <chr>
#>  1 Alabama       2014     1 2014-01-04       All Cause                1057 All …
#>  2 Alabama       2014     1 2014-01-04       Alzheimer disease (G30)    38 Alzh…
#>  3 Alabama       2014     1 2014-01-04       Cerebrovascular diseas…    51 Cere…
#>  4 Alabama       2014     1 2014-01-04       Chronic lower respirat…    66 Chro…
#>  5 Alabama       2014     1 2014-01-04       Diabetes mellitus (E10…    29 Diab…
#>  6 Alabama       2014     1 2014-01-04       Diseases of heart (I00…   264 Dise…
#>  7 Alabama       2014     1 2014-01-04       Influenza and pneumoni…    38 Infl…
#>  8 Alabama       2014     1 2014-01-04       Malignant neoplasms (C…   196 Canc…
#>  9 Alabama       2014     1 2014-01-04       Natural Cause             992 Natu…
#> 10 Alabama       2014     1 2014-01-04       Nephritis, nephrotic s…    21 Kidn…
#> # … with 327,446 more rows
#> # ℹ Use `print(n = ...)` to see more rows
…
New York Times Excess Death Calculations

The New York Times has begun to collate short term mortality counts in an effort to calculate excess deaths for various countries and regions.

nytexcess  
#> # A tibble: 7,258 × 12
#>    country placename frequency start_date end_date   year  month  week deaths
#>    <chr>   <chr>     <chr>     <date>     <date>     <chr> <int> <int>  <int>
#>  1 Austria NA        weekly    2020-01-06 2020-01-12 2020      1     2   1702
#>  2 Austria NA        weekly    2020-01-13 2020-01-19 2020      1     3   1797
#>  3 Austria NA        weekly    2020-01-20 2020-01-26 2020      1     4   1779
#>  4 Austria NA        weekly    2020-01-27 2020-02-02 2020      2     5   1947
#>  5 Austria NA        weekly    2020-02-03 2020-02-09 2020      2     6   1681
#>  6 Austria NA        weekly    2020-02-10 2020-02-16 2020      2     7   1721
#>  7 Austria NA        weekly    2020-02-17 2020-02-23 2020      2     8   1718
#>  8 Austria NA        weekly    2020-02-24 2020-03-01 2020      3     9   1768
#>  9 Austria NA        weekly    2020-03-02 2020-03-08 2020      3    10   1744
#> 10 Austria NA        weekly    2020-03-09 2020-03-15 2020      3    11   1718
#> # … with 7,248 more rows, and 3 more variables: expected_deaths <int>,
#> #   excess_deaths <int>, baseline <chr>
#> # ℹ Use `print(n = ...)` to see more rows, and `colnames()` to see all variable names
…
