Mobility Data from Apple • covdata
…
Apple’s Mobility Data

Apple has made aggregated data available on relative trends in use of its Maps data across a range of cities, regions, and countries. Data show relative volume of directions requests per country/region or city compared to a baseline volume on January 13th, 2020. Apple defines the day as midnight-to-midnight, Pacific time. Cities represent usage in greater metropolitan areas and are stably defined during this period. In many countries/regions and cities, relative volume has increased since January 13th, consistent with normal, seasonal usage of Apple Maps. Day of week effects are important to normalize as you use this data. Data that is sent from users’ devices to the Apple Maps service is associated with random, rotating identifiers so Apple does not have a profile of individual movements and searches. Apple Maps has no demographic information about its users, and so cannot make any statements about the representativeness of its usage against the overall population.

apple_mobility
#> # A tibble: 3,743,418 × 8
#>    geo_type       region  transportation_ty… alternative_name sub_region country
#>    <chr>          <chr>   <chr>              <chr>            <chr>      <chr>  
#>  1 country/region Albania driving            NA               NA         NA     
#>  2 country/region Albania driving            NA               NA         NA     
#>  3 country/region Albania driving            NA               NA         NA     
#>  4 country/region Albania driving            NA               NA         NA     
#>  5 country/region Albania driving            NA               NA         NA     
#>  6 country/region Albania driving            NA               NA         NA     
#>  7 country/region Albania driving            NA               NA         NA     
#>  8 country/region Albania driving            NA               NA         NA     
#>  9 country/region Albania driving            NA               NA         NA     
#> 10 country/region Albania driving            NA               NA         NA     
#> # … with 3,743,408 more rows, and 2 more variables: date <date>, score <dbl>
…
