New York Times Data • covdata
…
library(covdata)
library(tidyverse)
#> ── Attaching packages ─────────────────────────────────────── tidyverse 1.3.0 ──
#> ✔ ggplot2 3.3.0     ✔ purrr   0.3.4
#> ✔ tibble  3.0.1     ✔ dplyr   0.8.5
#> ✔ tidyr   1.0.2     ✔ stringr 1.4.0
#> ✔ readr   1.3.1     ✔ forcats 0.5.0
#> ── Conflicts ────────────────────────────────────────── tidyverse_conflicts() ──
#> ✖ dplyr::filter() masks stats::filter()
#> ✖ dplyr::lag()    masks stats::lag()

National, State- and County-Level (Cumulative) Data from the New York Times

nytcovus
#> # A tibble: 98 x 3
#>    date       cases deaths
#>    <date>     <dbl>  <dbl>
#>  1 2020-01-21     1      0
#>  2 2020-01-22     1      0
#>  3 2020-01-23     1      0
#>  4 2020-01-24     2      0
#>  5 2020-01-25     3      0
#>  6 2020-01-26     5      0
#>  7 2020-01-27     5      0
#>  8 2020-01-28     5      0
#>  9 2020-01-29     5      0
#> 10 2020-01-30     6      0
#> # … with 88 more rows

nytcovstate
#> # A tibble: 3,094 x 5
#>    date       state      fips  cases deaths
#>    <date>     <chr>      <chr> <dbl>  <dbl>
#>  1 2020-01-21 Washington 53        1      0
#>  2 2020-01-22 Washington 53        1      0
#>  3 2020-01-23 Washington 53        1      0
#>  4 2020-01-24 Illinois   17        1      0
#>  5 2020-01-24 Washington 53        1      0
#>  6 2020-01-25 California 06        1      0
#>  7 2020-01-25 Illinois   17        1      0
#>  8 2020-01-25 Washington 53        1      0
#>  9 2020-01-26 Arizona    04        1      0
#> 10 2020-01-26 California 06        2      0
#> # … with 3,084 more rows

nytcovcounty
#> # A tibble: 95,420 x 6
#>    date       county      state      fips  cases deaths
#>    <date>     <chr>       <chr>      <chr> <dbl>  <dbl>
#>  1 2020-01-21 Snohomish   Washington 53061     1      0
#>  2 2020-01-22 Snohomish   Washington 53061     1      0
#>  3 2020-01-23 Snohomish   Washington 53061     1      0
#>  4 2020-01-24 Cook        Illinois   17031     1      0
#>  5 2020-01-24 Snohomish   Washington 53061     1      0
#>  6 2020-01-25 Orange      California 06059     1      0
#>  7 2020-01-25 Cook        Illinois   17031     1      0
#>  8 2020-01-25 Snohomish   Washington 53061     1      0
#>  9 2020-01-26 Maricopa    Arizona    04013     1      0
#> 10 2020-01-26 Los Angeles California 06037     1      0
#> # … with 95,410 more rows
…
