U.S. Case and Mortality Data • covdata
…
Data for the United States come from a variety of sources:

State-level case and mortality data for the United States from the COVID Tracking Project.

State-level and county-level case and mortality data for the United States from the New York Times.

Data from the US Centers for Disease Control’s Coronavirus Disease 2019 (COVID-19)-Associated Hospitalization Surveillance.

State- and national-level reports from the United States National Center for Health Statistics.

COVID Tracking Project data

covus
#> # A tibble: 664,960 × 7
#>    date       state fips  data_quality_grade measure      count measure_label   
#>    <date>     <chr> <chr> <lgl>              <chr>        <dbl> <chr>           
#>  1 2021-03-07 AK    02    NA                 positive     56886 Positive Tests  
#>  2 2021-03-07 AK    02    NA                 probable_ca…    NA Probable Cases  
#>  3 2021-03-07 AK    02    NA                 negative        NA Negative Tests  
#>  4 2021-03-07 AK    02    NA                 pending         NA Pending Tests   
#>  5 2021-03-07 AK    02    NA                 hospitalize…    33 Currently Hospi…
#>  6 2021-03-07 AK    02    NA                 hospitalize…  1293 Cumulative Hosp…
#>  7 2021-03-07 AK    02    NA                 in_icu_curr…    NA Currently in ICU
#>  8 2021-03-07 AK    02    NA                 in_icu_cumu…    NA Cumulative in I…
#>  9 2021-03-07 AK    02    NA                 on_ventilat…     2 Currently on Ve…
#> 10 2021-03-07 AK    02    NA                 on_ventilat…    NA Cumulative on V…
#> # … with 664,950 more rows
…
Calculating daily counts

The COVID Tracking Project reports cumulative counts for key measures such as positive tests and deaths. For example, for New York State:

measures <- c("positive", "death")

covus %>%
  filter(measure %in% measures, state == "NY") %>%
  select(date, state, measure, count) %>%
  pivot_wider(names_from = measure, values_from = count) 
#> # A tibble: 371 × 4
#>    date       state positive death
#>    <date>     <chr>    <dbl> <dbl>
#>  1 2021-03-07 NY     1681169 39029
#>  2 2021-03-06 NY     1674380 38970
#>  3 2021-03-05 NY     1666733 38891
#>  4 2021-03-04 NY     1657777 38796
#>  5 2021-03-03 NY     1650184 38735
#>  6 2021-03-02 NY     1642480 38660
#>  7 2021-03-01 NY     1636680 38577
#>  8 2021-02-28 NY     1630445 38497
#>  9 2021-02-27 NY     1622865 38407
#> 10 2021-02-26 NY     1614724 38321
#> # … with 361 more rows

To calculate daily counts from these cumulative measures, use lag().

covus %>%
  filter(measure %in% measures, state == "NY") %>%
  select(date, state, measure, count) %>%
  pivot_wider(names_from = measure, values_from = count) %>%
  mutate(across(positive:death, ~.x - lag(.x, order_by = date), 
                .names = "daily_{col}"))
#> # A tibble: 371 × 6
#>    date       state positive death daily_positive daily_death
#>    <date>     <chr>    <dbl> <dbl>          <dbl>       <dbl>
#>  1 2021-03-07 NY     1681169 39029           6789          59
#>  2 2021-03-06 NY     1674380 38970           7647          79
#>  3 2021-03-05 NY     1666733 38891           8956          95
#>  4 2021-03-04 NY     1657777 38796           7593          61
#>  5 2021-03-03 NY     1650184 38735           7704          75
#>  6 2021-03-02 NY     1642480 38660           5800          83
#>  7 2021-03-01 NY     1636680 38577           6235          80
#>  8 2021-02-28 NY     1630445 38497           7580          90
#>  9 2021-02-27 NY     1622865 38407           8141          86
#> 10 2021-02-26 NY     1614724 38321           8204          94
#> # … with 361 more rows
…
State-Level and County-Level (Cumulative) Data from the New York Times

State-level table

nytcovstate
#> # A tibble: 33,046 × 5
#>    date       state      fips  cases deaths
#>    <date>     <chr>      <chr> <dbl>  <dbl>
#>  1 2020-01-21 Washington 53        1      0
#>  2 2020-01-22 Washington 53        1      0
#>  3 2020-01-23 Washington 53        1      0
#>  4 2020-01-24 Illinois   17        1      0
#>  5 2020-01-24 Washington 53        1      0
#>  6 2020-01-25 California 06        1      0
#>  7 2020-01-25 Illinois   17        1      0
#>  8 2020-01-25 Washington 53        1      0
#>  9 2020-01-26 Arizona    04        1      0
#> 10 2020-01-26 California 06        2      0
#> # … with 33,036 more rows

County-level table

nytcovcounty
#> # A tibble: 1,845,855 × 6
#>    date       county      state      fips  cases deaths
#>    <date>     <chr>       <chr>      <chr> <dbl>  <dbl>
#>  1 2020-01-21 Snohomish   Washington 53061     1      0
#>  2 2020-01-22 Snohomish   Washington 53061     1      0
#>  3 2020-01-23 Snohomish   Washington 53061     1      0
#>  4 2020-01-24 Cook        Illinois   17031     1      0
#>  5 2020-01-24 Snohomish   Washington 53061     1      0
#>  6 2020-01-25 Orange      California 06059     1      0
#>  7 2020-01-25 Cook        Illinois   17031     1      0
#>  8 2020-01-25 Snohomish   Washington 53061     1      0
#>  9 2020-01-26 Maricopa    Arizona    04013     1      0
#> 10 2020-01-26 Los Angeles California 06037     1      0
#> # … with 1,845,845 more rows
…
